{
    "count": 5,
    "next": "http://127.0.0.1:8000/api/hot/?page=2",
    "previous": null,
    "results": [
        {
            "pk": 5,
            "name": "keep",
            "images": "http://static1.keepcdn.com/picture/2019/06/24/14/54/c735f1ac7415a2505c4c6aae7511ce227c502850_1440x1079.jpg,http://static1.keepcdn.com/picture/2019/06/24/14/54/ce7295997a8bed285c4c6aae7511ce227c502850_1080x1080.jpg,http://static1.keepcdn.com/picture/2019/06/24/14/54/510b51d09a49e63b5c4c6aae7511ce227c502850_1241x1656.jpg,http://static1.keepcdn.com/picture/2019/06/24/14/54/30439732fba6ca745c4c6aae7511ce227c502850_1241x1656.jpg",
            "avatar": "http://static1.keepcdn.com/avatar/2019/05/01/17/55/f29c1a6840b9e38c5c4c6aae7511ce227c502850.jpg",
            "likes": "0",
            "content": "keep-keep-keep"
        },
        {
            "pk": 4,
            "name": "keep",
            "images": "http://static1.keepcdn.com/picture/2019/06/24/14/54/c735f1ac7415a2505c4c6aae7511ce227c502850_1440x1079.jpg,http://static1.keepcdn.com/picture/2019/06/24/14/54/ce7295997a8bed285c4c6aae7511ce227c502850_1080x1080.jpg,http://static1.keepcdn.com/picture/2019/06/24/14/54/510b51d09a49e63b5c4c6aae7511ce227c502850_1241x1656.jpg,http://static1.keepcdn.com/picture/2019/06/24/14/54/30439732fba6ca745c4c6aae7511ce227c502850_1241x1656.jpg",
            "avatar": "http://static1.keepcdn.com/avatar/2019/05/01/17/55/f29c1a6840b9e38c5c4c6aae7511ce227c502850.jpg",
            "likes": "0",
            "content": "keep-keep-keep"
        },
        {
            "pk": 3,
            "name": "keep",
            "images": "http://static1.keepcdn.com/picture/2019/06/24/14/54/c735f1ac7415a2505c4c6aae7511ce227c502850_1440x1079.jpg,http://static1.keepcdn.com/picture/2019/06/24/14/54/ce7295997a8bed285c4c6aae7511ce227c502850_1080x1080.jpg,http://static1.keepcdn.com/picture/2019/06/24/14/54/510b51d09a49e63b5c4c6aae7511ce227c502850_1241x1656.jpg,http://static1.keepcdn.com/picture/2019/06/24/14/54/30439732fba6ca745c4c6aae7511ce227c502850_1241x1656.jpg",
            "avatar": "http://static1.keepcdn.com/avatar/2019/05/01/17/55/f29c1a6840b9e38c5c4c6aae7511ce227c502850.jpg",
            "likes": "0",
            "content": "keep-keep-keep"
        }
    ]
}